{
    "windows" : {
        "package" : "http://otc-mesa-android.jf.intel.com/userContent/benchmarks/windows/Unigine.zip",
        "executable" : "Unigine/Sanctuary/Unigine.exe"
    },
    "linux" : {
        "package" : [
            "http://otc-mesa-android.jf.intel.com/userContent/benchmarks/linux/Synmark2-7.0.0.zip",
            "http://otc-mesa-android.jf.intel.com/userContent/benchmarks/linux/libjpeg8.zip"
        ],
        "executable" : "Synmark2-7.0.0/synmark2"
    }
}
